MicroMachines/Binaries/Win64/MicroMachines.exe	2019-01-27T15:20:24.665Z
Engine/Extras/Redist/en-us/UE4PrereqSetup_x64.exe	2019-01-25T11:36:08.222Z
Engine/Binaries/ThirdParty/Oculus/OVRPlugin/OVRPlugin/Win64/OVRPlugin.dll	2019-01-25T11:32:22.521Z
Engine/Binaries/ThirdParty/Windows/DirectX/x64/WinPixEventRuntime.dll	2019-01-25T11:32:36.110Z
Engine/Binaries/ThirdParty/NVIDIA/NVaftermath/Win64/GFSDK_Aftermath_Lib.x64.dll	2019-01-25T11:32:22.023Z
Engine/Binaries/ThirdParty/PhysX3/Win64/VS2015/PxFoundationPROFILE_x64.dll	2019-01-25T11:32:28.554Z
Engine/Binaries/ThirdParty/PhysX3/Win64/VS2015/PxPvdSDKPROFILE_x64.dll	2019-01-25T11:32:28.616Z
Engine/Binaries/ThirdParty/PhysX3/Win64/VS2015/PhysX3PROFILE_x64.dll	2019-01-25T11:32:28.214Z
Engine/Binaries/ThirdParty/PhysX3/Win64/VS2015/PhysX3CookingPROFILE_x64.dll	2019-01-25T11:32:28.173Z
Engine/Binaries/ThirdParty/PhysX3/Win64/VS2015/PhysX3CommonPROFILE_x64.dll	2019-01-25T11:32:27.713Z
Engine/Binaries/ThirdParty/PhysX3/Win64/VS2015/APEX_ClothingPROFILE_x64.dll	2019-01-25T11:32:26.768Z
Engine/Binaries/ThirdParty/PhysX3/Win64/VS2015/APEX_LegacyPROFILE_x64.dll	2019-01-25T11:32:27.064Z
Engine/Binaries/ThirdParty/PhysX3/Win64/VS2015/ApexFrameworkPROFILE_x64.dll	2019-01-25T11:32:27.298Z
Engine/Binaries/ThirdParty/PhysX3/Win64/VS2015/NvClothPROFILE_x64.dll	2019-01-25T11:32:27.446Z
Engine/Binaries/ThirdParty/OpenVR/OpenVRv1_0_16/Win64/openvr_api.dll	2019-01-25T11:32:22.818Z
Engine/Binaries/ThirdParty/Ogg/Win64/VS2015/libogg_64.dll	2019-01-25T11:32:22.578Z
Engine/Binaries/ThirdParty/Vorbis/Win64/VS2015/libvorbis_64.dll	2019-01-25T11:32:36.013Z
Engine/Binaries/ThirdParty/Vorbis/Win64/VS2015/libvorbisfile_64.dll	2019-01-25T11:32:36.027Z
MicroMachines.exe	2019-01-27T15:22:31.861Z
